<?xml version="1.0" encoding="utf-8"?>
<!-- Generator: Adobe Illustrator 24.2.1, SVG Export Plug-In . SVG Version: 6.00 Build 0)  -->
<svg version="1.1" id="Warstwa_1" xmlns="http://www.w3.org/2000/svg" xmlns:xlink="http://www.w3.org/1999/xlink" x="0px" y="0px"
	 viewBox="0 0 128 128" style="enable-background:new 0 0 128 128;" xml:space="preserve">
<style type="text/css">
	.st0{opacity:0.74;fill:#F2F2F2;stroke:#E20000;stroke-width:2;stroke-miterlimit:10;}
	.st1{fill:none;stroke:#E20000;stroke-width:2;stroke-linecap:round;stroke-linejoin:round;stroke-miterlimit:10;}
	.st2{fill:none;stroke:#E20000;stroke-width:1.4173;stroke-linecap:round;stroke-linejoin:round;stroke-miterlimit:10;}
	
		.st3{fill:none;stroke:#E20000;stroke-width:1.4173;stroke-linecap:round;stroke-linejoin:round;stroke-miterlimit:10;stroke-dasharray:2.8346,6.1058;}
	.st4{fill:none;stroke:#E20000;stroke-width:1.7008;stroke-linecap:round;stroke-linejoin:round;stroke-miterlimit:10;}
	.st5{fill:#E20000;}
	.st6{fill:none;stroke:#E20000;stroke-width:2.5;stroke-linecap:round;stroke-linejoin:round;stroke-miterlimit:10;}
	
		.st7{fill:none;stroke:#E20000;stroke-width:2.5;stroke-linecap:round;stroke-linejoin:round;stroke-miterlimit:10;stroke-dasharray:0.3974,4.9671;}
	
		.st8{fill:none;stroke:#E20000;stroke-width:2.5;stroke-linecap:round;stroke-linejoin:round;stroke-miterlimit:10;stroke-dasharray:0.5113,6.1361;}
	.st9{fill:none;stroke:#E20000;stroke-width:2.126;stroke-linecap:round;stroke-linejoin:round;stroke-miterlimit:10;}
	.st10{fill:#00497F;stroke:#E20000;stroke-width:2;stroke-miterlimit:10;}
	
		.st11{fill:none;stroke:#E20000;stroke-width:2;stroke-linecap:round;stroke-linejoin:round;stroke-miterlimit:10;stroke-dasharray:0.5088,6.1061;}
</style>
<g>
	<path class="st2" d="M80.5,44.9c10.4,5.9,16.9,16.9,16.9,29c0,18.4-15,33.4-33.4,33.4s-33.4-15-33.4-33.4c0-12.2,6.6-23.2,17-29.1"
		/>
	<path class="st2" d="M74.9,33.6v14.7c9.9,4.2,16.9,14.1,16.9,25.6c0,15.4-12.4,27.8-27.8,27.8c-15.4,0-27.8-12.4-27.8-27.8
		c0-11.5,7-21.4,17-25.6v-4.4"/>
	<line class="st2" x1="68" y1="40.3" x2="68" y2="47.3"/>
	<line class="st2" x1="60.9" y1="32" x2="60.9" y2="47.3"/>
	<line class="st3" x1="68" y1="20.7" x2="68" y2="36.8"/>
	<line class="st3" x1="53.2" y1="37.7" x2="53.2" y2="24.3"/>
	<line class="st2" x1="64" y1="53.2" x2="64" y2="53.8"/>
	<line class="st2" x1="64" y1="94" x2="64" y2="94.6"/>
	<line class="st2" x1="43.3" y1="73.9" x2="43.9" y2="73.9"/>
	<line class="st2" x1="84.1" y1="73.9" x2="84.7" y2="73.9"/>
	<line class="st2" x1="53.7" y1="56" x2="53.9" y2="56.5"/>
	<line class="st2" x1="74.1" y1="91.3" x2="74.3" y2="91.8"/>
	<line class="st2" x1="46.1" y1="84.2" x2="46.6" y2="84"/>
	<line class="st2" x1="81.4" y1="63.8" x2="81.9" y2="63.6"/>
	<line class="st2" x1="74.3" y1="56" x2="74.1" y2="56.5"/>
	<line class="st2" x1="53.9" y1="91.3" x2="53.7" y2="91.8"/>
	<line class="st2" x1="46.1" y1="63.6" x2="46.6" y2="63.8"/>
	<line class="st2" x1="81.4" y1="84" x2="81.9" y2="84.2"/>
	<polyline class="st2" points="54.7,64.5 64,73.9 72.6,68.9 	"/>
</g>
</svg>
