<?xml version="1.0" encoding="utf-8"?>
<!-- Generator: Adobe Illustrator 24.2.1, SVG Export Plug-In . SVG Version: 6.00 Build 0)  -->
<svg version="1.1" id="Warstwa_1" xmlns="http://www.w3.org/2000/svg" xmlns:xlink="http://www.w3.org/1999/xlink" x="0px" y="0px"
	 viewBox="0 0 128 128" style="enable-background:new 0 0 128 128;" xml:space="preserve">
<style type="text/css">
	.st0{opacity:0.74;fill:#F2F2F2;stroke:#E20000;stroke-width:2;stroke-miterlimit:10;}
	.st1{fill:none;stroke:#E20000;stroke-width:2;stroke-linecap:round;stroke-linejoin:round;stroke-miterlimit:10;}
	.st2{fill:none;stroke:#E20000;stroke-width:1.4173;stroke-linecap:round;stroke-linejoin:round;stroke-miterlimit:10;}
	
		.st3{fill:none;stroke:#E20000;stroke-width:1.4173;stroke-linecap:round;stroke-linejoin:round;stroke-miterlimit:10;stroke-dasharray:2.8346,6.1058;}
	.st4{fill:none;stroke:#E20000;stroke-width:1.7008;stroke-linecap:round;stroke-linejoin:round;stroke-miterlimit:10;}
	.st5{fill:#E20000;}
	.st6{fill:none;stroke:#E20000;stroke-width:2.5;stroke-linecap:round;stroke-linejoin:round;stroke-miterlimit:10;}
	
		.st7{fill:none;stroke:#E20000;stroke-width:2.5;stroke-linecap:round;stroke-linejoin:round;stroke-miterlimit:10;stroke-dasharray:0.3974,4.9671;}
	
		.st8{fill:none;stroke:#E20000;stroke-width:2.5;stroke-linecap:round;stroke-linejoin:round;stroke-miterlimit:10;stroke-dasharray:0.5113,6.1361;}
	.st9{fill:none;stroke:#E20000;stroke-width:2.126;stroke-linecap:round;stroke-linejoin:round;stroke-miterlimit:10;}
	.st10{fill:#00497F;stroke:#E20000;stroke-width:2;stroke-miterlimit:10;}
	
		.st11{fill:none;stroke:#E20000;stroke-width:2;stroke-linecap:round;stroke-linejoin:round;stroke-miterlimit:10;stroke-dasharray:0.5088,6.1061;}
</style>
<g id="select_foods">
	<g id="decor">
		<circle class="st0" cx="91.5" cy="79.6" r="2.5"/>
	</g>
	<g id="icon_1_">
		<g>
			<path class="st1" d="M78.9,66V25.2c0-4.5-3.7-8.2-8.2-8.2H42.2c-4.5,0-8.2,3.7-8.2,8.2v59.2c0,4.5,3.7,8.2,8.2,8.2h0"/>
			<line class="st1" x1="34" y1="83" x2="42.2" y2="83"/>
			<line class="st1" x1="34" y1="26.6" x2="78.9" y2="26.6"/>
		</g>
		<g>
			<path class="st1" d="M56.6,86.8v-24c0-2,1.7-3.4,3.4-3.4s3.4,1.4,3.4,3.4l0,17.2"/>
			<path class="st1" d="M63.5,79.9l0-6.9c0-2,1.7-3.4,3.4-3.4c1.7,0,3.4,1.4,3.4,3.4l0,8.6"/>
			<path class="st1" d="M70.4,76.5c0-2,1.7-3.4,3.4-3.4c1.7,0,3.4,1.4,3.4,3.4v7.8"/>
			<path class="st1" d="M77.2,79.9c0-2,1.7-3.4,3.4-3.4c1.7,0,3.4,1.4,3.4,3.4v12l0,3c0,2.2-0.6,4.1-1.5,5.6c-1.9,3.1-1.9,4-1.9,6.8
				v3.6"/>
			<path class="st1" d="M56.6,83.3c0-3.2-1.4-5.2-3.3-6.1c-1.7-0.8-3.6,0.4-3.6,2.2v12.5c0,4.1,2,7.4,4.1,9.2c2.3,2,4.5,4,4.5,8v1.8
				"/>
		</g>
		<rect x="43.5" y="37.5" class="st1" width="25.9" height="11.5"/>
	</g>
</g>
</svg>
