<?xml version="1.0" encoding="utf-8"?>
<!-- Generator: Adobe Illustrator 24.2.1, SVG Export Plug-In . SVG Version: 6.00 Build 0)  -->
<svg version="1.1" id="Warstwa_1" xmlns="http://www.w3.org/2000/svg" xmlns:xlink="http://www.w3.org/1999/xlink" x="0px" y="0px"
	 viewBox="0 0 128 128" style="enable-background:new 0 0 128 128;" xml:space="preserve">
<style type="text/css">
	.st0{opacity:0.74;fill:#F2F2F2;stroke:#E20000;stroke-width:2;stroke-miterlimit:10;}
	.st1{fill:none;stroke:#E20000;stroke-width:2;stroke-linecap:round;stroke-linejoin:round;stroke-miterlimit:10;}
	.st2{fill:none;stroke:#E20000;stroke-width:1.4173;stroke-linecap:round;stroke-linejoin:round;stroke-miterlimit:10;}
	
		.st3{fill:none;stroke:#E20000;stroke-width:1.4173;stroke-linecap:round;stroke-linejoin:round;stroke-miterlimit:10;stroke-dasharray:2.8346,6.1058;}
	.st4{fill:none;stroke:#E20000;stroke-width:1.7008;stroke-linecap:round;stroke-linejoin:round;stroke-miterlimit:10;}
	.st5{fill:#E20000;}
	.st6{fill:none;stroke:#E20000;stroke-width:2.5;stroke-linecap:round;stroke-linejoin:round;stroke-miterlimit:10;}
	
		.st7{fill:none;stroke:#E20000;stroke-width:2.5;stroke-linecap:round;stroke-linejoin:round;stroke-miterlimit:10;stroke-dasharray:0.3974,4.9671;}
	
		.st8{fill:none;stroke:#E20000;stroke-width:2.5;stroke-linecap:round;stroke-linejoin:round;stroke-miterlimit:10;stroke-dasharray:0.5113,6.1361;}
	.st9{fill:none;stroke:#E20000;stroke-width:2.126;stroke-linecap:round;stroke-linejoin:round;stroke-miterlimit:10;}
	.st10{fill:#00497F;stroke:#E20000;stroke-width:2;stroke-miterlimit:10;}
	
		.st11{fill:none;stroke:#E20000;stroke-width:2;stroke-linecap:round;stroke-linejoin:round;stroke-miterlimit:10;stroke-dasharray:0.5088,6.1061;}
</style>
<g>
	<path class="st4" d="M48,102.4c7.5,5.1,16,10.7,16,10.7v0l0,0"/>
	<path class="st4" d="M96.2,46C81.3,47,64,31.5,64,31.5l0,0v0c0,0-17.3,15.5-32.2,14.5v34.5c0,6.2,2.4,12.2,6.7,15.3"/>
	<line class="st4" x1="96.2" y1="66" x2="96.2" y2="56.7"/>
	<line class="st4" x1="96.2" y1="26.4" x2="96.2" y2="17"/>
	<line class="st4" x1="88.9" y1="14.9" x2="88.9" y2="13.5"/>
	<line class="st4" x1="96.2" y1="10.7" x2="96.2" y2="6.3"/>
	<path class="st4" d="M64,113.1c0,0,19.3-12.7,25.5-17.3c4.3-3.2,6.7-9.1,6.7-15.3v-3"/>
	<path class="st4" d="M64,121.7l-3.9-2.6c-0.8-0.5-19.5-12.9-25.8-17.5c-6-4.4-9.6-12.3-9.6-21.1V46v-7.7l7.6,0.5c0.3,0,0.6,0,0.9,0
		c9.6,0,21.9-9.1,25.9-12.7l4.8-4.5l4.8,4.5c4,3.6,16.4,12.7,25.9,12.7h0c0.3,0,0.6,0,0.9,0l7.6-0.5V46v34.5
		c0,8.8-3.6,16.7-9.6,21.1c-6.3,4.6-25,17-25.8,17.5L64,121.7z"/>
	<path class="st4" d="M75.8,57.4L61.5,71.7c-0.4,0.4-1.1,0.4-1.5,0l-6.6-6.6c-1-1-2.6-1-3.6,0l-5,5c-1,1-1,2.6,0,3.6L59,88
		c1,1,2.6,1,3.6,0l21.9-21.9c1-1,1-2.6,0-3.6l-5-5C78.5,56.4,76.8,56.4,75.8,57.4z"/>
</g>
</svg>
