<?xml version="1.0" encoding="utf-8"?>
<!-- Generator: Adobe Illustrator 24.2.1, SVG Export Plug-In . SVG Version: 6.00 Build 0)  -->
<svg version="1.1" id="Warstwa_1" xmlns="http://www.w3.org/2000/svg" xmlns:xlink="http://www.w3.org/1999/xlink" x="0px" y="0px"
	 viewBox="0 0 128 128" style="enable-background:new 0 0 128 128;" xml:space="preserve">
<style type="text/css">
	.st0{opacity:0.74;fill:#F2F2F2;stroke:#E20000;stroke-width:2;stroke-miterlimit:10;}
	.st1{fill:none;stroke:#E20000;stroke-width:2;stroke-linecap:round;stroke-linejoin:round;stroke-miterlimit:10;}
	.st2{fill:none;stroke:#E20000;stroke-width:1.4173;stroke-linecap:round;stroke-linejoin:round;stroke-miterlimit:10;}
	
		.st3{fill:none;stroke:#E20000;stroke-width:1.4173;stroke-linecap:round;stroke-linejoin:round;stroke-miterlimit:10;stroke-dasharray:2.8346,6.1058;}
	.st4{fill:none;stroke:#E20000;stroke-width:1.7008;stroke-linecap:round;stroke-linejoin:round;stroke-miterlimit:10;}
	.st5{fill:#E20000;}
	.st6{fill:none;stroke:#E20000;stroke-width:2.5;stroke-linecap:round;stroke-linejoin:round;stroke-miterlimit:10;}
	
		.st7{fill:none;stroke:#E20000;stroke-width:2.5;stroke-linecap:round;stroke-linejoin:round;stroke-miterlimit:10;stroke-dasharray:0.3974,4.9671;}
	
		.st8{fill:none;stroke:#E20000;stroke-width:2.5;stroke-linecap:round;stroke-linejoin:round;stroke-miterlimit:10;stroke-dasharray:0.5113,6.1361;}
	.st9{fill:none;stroke:#E20000;stroke-width:2.126;stroke-linecap:round;stroke-linejoin:round;stroke-miterlimit:10;}
	.st10{fill:#00497F;stroke:#E20000;stroke-width:2;stroke-miterlimit:10;}
	
		.st11{fill:none;stroke:#E20000;stroke-width:2;stroke-linecap:round;stroke-linejoin:round;stroke-miterlimit:10;stroke-dasharray:0.5088,6.1061;}
</style>
<g>
	<path class="st9" d="M23.4,76.7c-7.1-0.3-10.6-4.9-11.3-11.6c-1.1-10.5,0.8-6.7,9.2-9.9c14.7-5.6,23.9-13,40.9-10.1
		c11.9,2.1,21.8,9.1,32.9,12.7c5.3,1.7,16.3,1.7,19.6,7.4c4.7,8-2.6,10.9-9.4,11.6"/>
	<line class="st9" x1="47.8" y1="77.5" x2="81.2" y2="77.5"/>
	<path class="st9" d="M110.4,67.2c-0.4,0-0.9,0-1.5-0.1c-4.1-0.3-4.9-1.2-6-3.1"/>
	<path class="st9" d="M20.3,65.4c-2.8,1.2-4-0.5-3.5-3.8c0-0.3,0.3-0.5,0.6-0.5h5.5c0.3,0,0.6,0.3,0.5,0.7c0,0.1-0.1,0.2-0.1,0.3
		C22.9,63.4,21.6,64.9,20.3,65.4z"/>
	<path class="st9" d="M56.3,57.9l25.2,1.6c0.8,0.1,1-1.1,0.3-1.4c-1.5-0.7-3.1-1.4-4.2-2c-5.3-2.6-9.4-4.3-15.8-5.8
		c-2.1-0.5-6.6-0.8-7-0.7L56.3,57.9z"/>
	<path class="st9" d="M50.1,50c-3.4,0.5-6.7,1.6-10,2.9c-0.4,0.2-1.9,0.9-3.5,1.6c-1.1,0.5-0.8,2.2,0.4,2.3l14.2,0.9L50.1,50z"/>
	<path class="st9" d="M38.2,75.4c0-1.4-1.1-2.5-2.5-2.5c-1.4,0-2.5,1.1-2.5,2.5s1.1,2.5,2.5,2.5C37.1,77.8,38.2,76.7,38.2,75.4z"/>
	<path class="st9" d="M95.7,75.4c0-1.4-1.1-2.5-2.5-2.5c-1.4,0-2.5,1.1-2.5,2.5s1.1,2.5,2.5,2.5C94.6,77.8,95.7,76.7,95.7,75.4z"/>
	<line class="st9" x1="16.4" y1="85.5" x2="110.3" y2="85.5"/>
	<line class="st9" x1="25.5" y1="92" x2="101.2" y2="92"/>
	<line class="st9" x1="15.1" y1="45.1" x2="25.5" y2="45.1"/>
	<line class="st9" x1="26.8" y1="37.3" x2="34.6" y2="37.3"/>
	<line class="st9" x1="89.4" y1="43.8" x2="105.1" y2="43.8"/>
	<line class="st9" x1="79" y1="36" x2="86.8" y2="36"/>
	<ellipse transform="matrix(0.987 -0.1606 0.1606 0.987 -11.6375 6.7084)" class="st9" cx="35.7" cy="75.4" rx="7.9" ry="7.9"/>
	<ellipse transform="matrix(0.7071 -0.7071 0.7071 0.7071 -25.9907 87.9652)" class="st9" cx="93.2" cy="75.4" rx="7.9" ry="7.9"/>
</g>
</svg>
