<?xml version="1.0" encoding="utf-8"?>
<!-- Generator: Adobe Illustrator 24.2.1, SVG Export Plug-In . SVG Version: 6.00 Build 0)  -->
<svg version="1.1" id="Warstwa_1" xmlns="http://www.w3.org/2000/svg" xmlns:xlink="http://www.w3.org/1999/xlink" x="0px" y="0px"
	 viewBox="0 0 128 128" style="enable-background:new 0 0 128 128;" xml:space="preserve">
<style type="text/css">
	.st0{opacity:0.74;fill:#F2F2F2;stroke:#E20000;stroke-width:2;stroke-miterlimit:10;}
	.st1{fill:none;stroke:#E20000;stroke-width:2;stroke-linecap:round;stroke-linejoin:round;stroke-miterlimit:10;}
	.st2{fill:none;stroke:#E20000;stroke-width:1.4173;stroke-linecap:round;stroke-linejoin:round;stroke-miterlimit:10;}
	
		.st3{fill:none;stroke:#E20000;stroke-width:1.4173;stroke-linecap:round;stroke-linejoin:round;stroke-miterlimit:10;stroke-dasharray:2.8346,6.1058;}
	.st4{fill:none;stroke:#E20000;stroke-width:1.7008;stroke-linecap:round;stroke-linejoin:round;stroke-miterlimit:10;}
	.st5{fill:#E20000;}
	.st6{fill:none;stroke:#E20000;stroke-width:2.5;stroke-linecap:round;stroke-linejoin:round;stroke-miterlimit:10;}
	
		.st7{fill:none;stroke:#E20000;stroke-width:2.5;stroke-linecap:round;stroke-linejoin:round;stroke-miterlimit:10;stroke-dasharray:0.3974,4.9671;}
	
		.st8{fill:none;stroke:#E20000;stroke-width:2.5;stroke-linecap:round;stroke-linejoin:round;stroke-miterlimit:10;stroke-dasharray:0.5113,6.1361;}
	.st9{fill:none;stroke:#E20000;stroke-width:2.126;stroke-linecap:round;stroke-linejoin:round;stroke-miterlimit:10;}
	.st10{fill:#00497F;stroke:#E20000;stroke-width:2;stroke-miterlimit:10;}
	
		.st11{fill:none;stroke:#E20000;stroke-width:2;stroke-linecap:round;stroke-linejoin:round;stroke-miterlimit:10;stroke-dasharray:0.5088,6.1061;}
</style>
<g>
	<path class="st5" d="M56.7,66.4c0.1,0.6,0.6,1,1.1,1c0.1,0,0.1,0,0.2,0c0.6-0.1,1-0.7,0.9-1.3l-1-5.8c-0.1-0.6-0.7-1-1.3-0.9
		c-0.6,0.1-1,0.7-0.9,1.3L56.7,66.4z"/>
	<path class="st5" d="M64,67.4c0.6,0,1.2-0.5,1.2-1.2v-5.8c0-0.6-0.5-1.2-1.2-1.2c-0.6,0-1.2,0.5-1.2,1.2v5.8
		C62.8,66.9,63.4,67.4,64,67.4z"/>
	<path class="st5" d="M70,67.4c0.1,0,0.1,0,0.2,0c0.5,0,1-0.4,1.1-1l1-5.8c0.1-0.6-0.3-1.2-0.9-1.3c-0.6-0.1-1.2,0.3-1.3,0.9L69,66
		C68.9,66.7,69.3,67.3,70,67.4z"/>
	<path class="st5" d="M45.6,55.2L51,72.9c0.2,0.7,0.9,1.1,1.6,1.1h22.9c0.7,0,1.4-0.4,1.6-1.1l5.3-17.7c0.2-0.5,0.1-1.1-0.3-1.6
		c-0.3-0.4-0.9-0.7-1.4-0.7H70.5v-1.7c0-2.2-1.8-4-4-4h-5.1c-2.2,0-4,1.8-4,4v1.7H47.3c-0.6,0-1.1,0.3-1.4,0.7
		C45.6,54,45.5,54.7,45.6,55.2z M59.8,51.1c0-1,0.7-1.7,1.7-1.7h5.1c1,0,1.7,0.8,1.7,1.7v1.7h-8.5V51.1z M58.5,55.2
		C58.5,55.2,58.5,55.2,58.5,55.2c0.1,0,0.1,0,0.2,0h10.7c0,0,0.1,0,0.1,0c0,0,0.1,0,0.1,0h10.4l-5,16.5H53l-5-16.5H58.5z"/>
	<path class="st5" d="M118,91.7l-9.4-10.4v-45c0-5-4-8.9-9-8.9H28.4c-5,0-9,3.9-9,8.9v2.6c0,0,0,0,0,0c0,0,0,0,0,0v42.5L10,91.7
		c-0.6,0.3-1,0.9-1,1.7l0,2.2c0,2.8,2.3,4.9,5,4.9H114c2.8,0,5-2.1,5-4.9v-2.3C119,92.7,118.6,92.1,118,91.7z M114.7,91.7H13.3
		l7.7-8.8H107L114.7,91.7z M106.3,80.5H21.7V40.2h84.6V80.5z M28.4,29.8h71.3c3.7,0,6.7,2.8,6.7,6.6v1.5H21.7v-1.5
		C21.7,32.6,24.7,29.8,28.4,29.8z M116.7,95.7c0,1.5-1.2,2.5-2.7,2.5H14c-1.5,0-2.7-1-2.7-2.5V94h105.4V95.7z"/>
	<path class="st5" d="M62.4,34.8h3.3c0.6,0,1.2-0.5,1.2-1.2c0-0.6-0.5-1.2-1.2-1.2h-3.3c-0.6,0-1.2,0.5-1.2,1.2
		C61.2,34.3,61.7,34.8,62.4,34.8z"/>
	<path class="st5" d="M64.5,86.3h-2.2c-0.6,0-1.2,0.5-1.2,1.2c0,0.6,0.5,1.2,1.2,1.2h2.2c0.6,0,1.2-0.5,1.2-1.2
		C65.7,86.8,65.2,86.3,64.5,86.3z"/>
	<path class="st5" d="M72.2,86.3H70c-0.6,0-1.2,0.5-1.2,1.2c0,0.6,0.5,1.2,1.2,1.2h2.2c0.6,0,1.2-0.5,1.2-1.2
		C73.3,86.8,72.8,86.3,72.2,86.3z"/>
	<path class="st5" d="M49.3,86.3h-2.2c-0.6,0-1.2,0.5-1.2,1.2c0,0.6,0.5,1.2,1.2,1.2h2.2c0.6,0,1.2-0.5,1.2-1.2
		C50.5,86.8,49.9,86.3,49.3,86.3z"/>
	<path class="st5" d="M56.9,86.3h-2.2c-0.6,0-1.2,0.5-1.2,1.2c0,0.6,0.5,1.2,1.2,1.2h2.2c0.6,0,1.2-0.5,1.2-1.2
		C58.1,86.8,57.6,86.3,56.9,86.3z"/>
	<path class="st5" d="M41.7,86.3h-2.2c-0.6,0-1.2,0.5-1.2,1.2c0,0.6,0.5,1.2,1.2,1.2h2.2c0.6,0,1.2-0.5,1.2-1.2
		C42.8,86.8,42.3,86.3,41.7,86.3z"/>
	<path class="st5" d="M26.5,86.3h-2.2c-0.6,0-1.2,0.5-1.2,1.2c0,0.6,0.5,1.2,1.2,1.2h2.2c0.6,0,1.2-0.5,1.2-1.2
		C27.6,86.8,27.1,86.3,26.5,86.3z"/>
	<path class="st5" d="M34.1,86.3h-2.2c-0.6,0-1.2,0.5-1.2,1.2c0,0.6,0.5,1.2,1.2,1.2h2.2c0.6,0,1.2-0.5,1.2-1.2
		C35.2,86.8,34.7,86.3,34.1,86.3z"/>
	<path class="st5" d="M96.1,86.3h-2.2c-0.6,0-1.2,0.5-1.2,1.2c0,0.6,0.5,1.2,1.2,1.2h2.2c0.6,0,1.2-0.5,1.2-1.2
		C97.2,86.8,96.7,86.3,96.1,86.3z"/>
	<path class="st5" d="M103.7,86.3h-2.2c-0.6,0-1.2,0.5-1.2,1.2c0,0.6,0.5,1.2,1.2,1.2h2.2c0.6,0,1.2-0.5,1.2-1.2
		C104.9,86.8,104.3,86.3,103.7,86.3z"/>
	<path class="st5" d="M88.5,86.3h-2.2c-0.6,0-1.2,0.5-1.2,1.2c0,0.6,0.5,1.2,1.2,1.2h2.2c0.6,0,1.2-0.5,1.2-1.2
		C89.6,86.8,89.1,86.3,88.5,86.3z"/>
</g>
</svg>
